/* XPM */
static char *Pixmap[] = {
"24 22 256 3",
"000 c black",
"001 c #000100",
"002 c #000002",
"003 c #000401",
"004 c #010F01",
"005 c #000E02",
"006 c #001102",
"007 c #001502",
"008 c #011A03",
"009 c #001B04",
"010 c #001C04",
"011 c #001D05",
"012 c #002003",
"013 c #002106",
"014 c #002305",
"015 c #002707",
"016 c #062605",
"017 c #002D06",
"018 c #002909",
"019 c #0A2F07",
"020 c #003203",
"021 c #063009",
"022 c #06360A",
"023 c #063905",
"024 c #033B0C",
"025 c #083008",
"026 c #09360A",
"027 c #0B3E08",
"028 c #113608",
"029 c #10390A",
"030 c #143F0C",
"031 c #15420C",
"032 c #16410C",
"033 c #16420C",
"034 c #16430D",
"035 c #18460E",
"036 c #19470E",
"037 c #1B4C0E",
"038 c #1C4C0E",
"039 c #1E4E0F",
"040 c #1F5211",
"041 c #275A08",
"042 c #26580F",
"043 c #205611",
"044 c #275410",
"045 c #235911",
"046 c #235912",
"047 c #235913",
"048 c #225B14",
"049 c #255D13",
"050 c #265E13",
"051 c #266115",
"052 c #2A6314",
"053 c #2A6415",
"054 c #2C6012",
"055 c #2E6614",
"056 c #2E6914",
"057 c #306B15",
"058 c #326E15",
"059 c #376A19",
"060 c #396D14",
"061 c #3E6D13",
"062 c #377016",
"063 c #357418",
"064 c #337A1D",
"065 c #36781A",
"066 c #397015",
"067 c #387717",
"068 c #3A7A1A",
"069 c #3A7C18",
"070 c #3B7C1A",
"071 c #417719",
"072 c #437915",
"073 c #417E13",
"074 c #417E14",
"075 c #407D19",
"076 c #4A7818",
"077 c #40811B",
"078 c #41801A",
"079 c #428219",
"080 c #448118",
"081 c #49861C",
"082 c #4F871A",
"083 c #498913",
"084 c #4D8915",
"085 c #4B8918",
"086 c #4B8919",
"087 c #4A891A",
"088 c #518115",
"089 c #548315",
"090 c #508B17",
"091 c #528D10",
"092 c #508C15",
"093 c #528D16",
"094 c #538C1B",
"095 c #548C18",
"096 c #578F18",
"097 c #5C8C10",
"098 c #56910E",
"099 c #57910E",
"100 c #58920C",
"101 c #569215",
"102 c #5F9710",
"103 c #5B9118",
"104 c #5B921C",
"105 c #5A9418",
"106 c #5A941E",
"107 c #5D911D",
"108 c #5F9718",
"109 c #5E951C",
"110 c #538E25",
"111 c #5C8C2E",
"112 c #5C8A34",
"113 c #5F942D",
"114 c #609315",
"115 c #609413",
"116 c #609A13",
"117 c #649B12",
"118 c #659C13",
"119 c #669C19",
"120 c #659C1C",
"121 c #6B9B16",
"122 c #689E13",
"123 c #699E15",
"124 c #619421",
"125 c #649825",
"126 c #659A26",
"127 c #659C22",
"128 c #679B2A",
"129 c #669A2D",
"130 c #689C2E",
"131 c #699B3B",
"132 c #6FA31C",
"133 c #7EAF0E",
"134 c #70A513",
"135 c #73A611",
"136 c #72A714",
"137 c #75A517",
"138 c #70A21C",
"139 c #78AA13",
"140 c #79A916",
"141 c #79AB14",
"142 c #78AA17",
"143 c #79AC17",
"144 c #7BAC14",
"145 c #7FAF13",
"146 c #7DAE14",
"147 c #79AA1C",
"148 c #6EA02A",
"149 c #71A426",
"150 c #74A623",
"151 c #74A624",
"152 c #73A23A",
"153 c #6E9A40",
"154 c #6E9A42",
"155 c #7CA943",
"156 c #82B307",
"157 c #86B607",
"158 c #88B70F",
"159 c #81B113",
"160 c #86B513",
"161 c #85B514",
"162 c #88B61D",
"163 c #8BB910",
"164 c #8CBA12",
"165 c #82AE3C",
"166 c #80B021",
"167 c #85B322",
"168 c #80B02D",
"169 c #83B136",
"170 c #85B133",
"171 c #83AF47",
"172 c #89B44A",
"173 c #8CB54E",
"174 c #90B944",
"175 c #93BA53",
"176 c #96BD55",
"177 c #9ABF56",
"178 c #9BC153",
"179 c #9CC156",
"180 c black",
"181 c black",
"182 c black",
"183 c black",
"184 c black",
"185 c black",
"186 c black",
"187 c black",
"188 c black",
"189 c black",
"190 c black",
"191 c black",
"192 c black",
"193 c black",
"194 c black",
"195 c black",
"196 c black",
"197 c black",
"198 c black",
"199 c black",
"200 c black",
"201 c black",
"202 c black",
"203 c black",
"204 c black",
"205 c black",
"206 c black",
"207 c black",
"208 c black",
"209 c black",
"210 c black",
"211 c black",
"212 c black",
"213 c black",
"214 c black",
"215 c black",
"216 c black",
"217 c black",
"218 c black",
"219 c black",
"220 c black",
"221 c black",
"222 c black",
"223 c black",
"224 c black",
"225 c black",
"226 c black",
"227 c black",
"228 c black",
"229 c black",
"230 c black",
"231 c black",
"232 c black",
"233 c black",
"234 c black",
"235 c black",
"236 c black",
"237 c black",
"238 c black",
"239 c black",
"240 c black",
"241 c black",
"242 c black",
"243 c black",
"244 c black",
"245 c black",
"246 c black",
"247 c black",
"248 c black",
"249 c black",
"250 c black",
"251 c black",
"252 c black",
"253 c black",
"254 c black",
"255 c black",
"000000000000000000000000000000000000000000000000000000000000000000000000",
"000000000000000000000000000000000000000000000000000000000000000000000000",
"000000000000000000000027060111153154112059023000000000000000000000000000",
"000000000000000015072149174178179177176172130062014000000000000000000000",
"000000000000026096143167162158157156133147151120080025000000000000000000",
"000000000013095141159163160121089088114134135123108075009000000000000000",
"000000000066136145164137044002000000002038092122119106052005033035000000",
"000000021101139160140024000000000000000000018074115126081065064030000000",
"000000045116144161061000000000000000004039076124097125113079051000000000",
"000000056118146142022000000000000000001037107168132109131070016000000000",
"000000058117166138011000000000000000000000000042094105110043000000000000",
"000000057102170150017000000000000000000000000000010055063006000000000000",
"000000050098165169041000000000000000000000000000000000007000000000000000",
"000000031083148175103012000000000000000000000000000000000000000000000000",
"000000003067100155173082020000000000001000000000000000000000000000000000",
"000000000034086099152171129071054032000000000000000000000000000000000000",
"000000000000047087091104128127093049000000000000000000000000000000000000",
"000000000000000040078085084090073046000000000000000000000000000000000000",
"000000000000000000019053068077069048000000000000000000000000000000000000",
"000000000000000000000000008029036028000000000000000000000000000000000000",
"000000000000000000000000000000000000000000000000000000000000000000000000",
"000000000000000000000000000000000000000000000000000000000000000000000000"
};
