/* XPM */
static char *Pixmap[] = {
"25 24 256 3",
"000 c #005D8F",
"001 c #005D90",
"002 c #055F90",
"003 c #006096",
"004 c #00639A",
"005 c #1D6290",
"006 c #1C6496",
"007 c #1B6598",
"008 c #1C699E",
"009 c #036FAB",
"010 c #006EB5",
"011 c #0970AC",
"012 c #1C6CA2",
"013 c #1E71AB",
"014 c #1A76B3",
"015 c #1D75B2",
"016 c #1879B9",
"017 c #197DBE",
"018 c #1E7FBD",
"019 c #366A95",
"020 c #366C9A",
"021 c #366D9D",
"022 c #206CA2",
"023 c #266FA6",
"024 c #2E70A4",
"025 c #2873AA",
"026 c #2B76AD",
"027 c #2A76AF",
"028 c #2F74AA",
"029 c #2F75AC",
"030 c #2F76AD",
"031 c #2E76AE",
"032 c #2676B0",
"033 c #2777B2",
"034 c #277DB8",
"035 c #2B77B0",
"036 c #2C79B3",
"037 c #2F78B0",
"038 c #3470A1",
"039 c #3572A4",
"040 c #3772A4",
"041 c #3773A6",
"042 c #3774A6",
"043 c #3275AC",
"044 c #3574A9",
"045 c #3776AB",
"046 c #3577AD",
"047 c #3778AC",
"048 c #3678AE",
"049 c #3874A5",
"050 c #307BB6",
"051 c #3779B0",
"052 c #377AB0",
"053 c #377AB2",
"054 c #307DBA",
"055 c #387BB4",
"056 c #387CB5",
"057 c #387CB6",
"058 c #397EB4",
"059 c #387EB8",
"060 c #1B7EC0",
"061 c #4A7BA9",
"062 c #4C7DA9",
"063 c #487CB1",
"064 c #4B7FB4",
"065 c #3881BD",
"066 c #5A84AE",
"067 c #5688B5",
"068 c #5887B7",
"069 c #628FBF",
"070 c #6A8EB5",
"071 c #698EB8",
"072 c #6A91BC",
"073 c #7194B9",
"074 c #7495B8",
"075 c #7495BC",
"076 c #598EC2",
"077 c #5392C6",
"078 c #5D94C6",
"079 c #6192C2",
"080 c #6194C2",
"081 c #7EA2C9",
"082 c #FFB900",
"083 c #FFBD08",
"084 c #FFBE1F",
"085 c #FDBA30",
"086 c #FEBD42",
"087 c #FFC100",
"088 c #FFC306",
"089 c #FFC908",
"090 c #FEC115",
"091 c #FFC91B",
"092 c #FFC121",
"093 c #FFC427",
"094 c #FFC22F",
"095 c #FFC62A",
"096 c #FFCF29",
"097 c #FFC632",
"098 c #FFC734",
"099 c #FFC039",
"100 c #FFCB31",
"101 c #FFC937",
"102 c #FFCD36",
"103 c #FFC93F",
"104 c #FFCC3B",
"105 c #FFCD3C",
"106 c #FFD025",
"107 c #FFD92E",
"108 c #FFD434",
"109 c #FFD03F",
"110 c #FFD53E",
"111 c #FFDF3A",
"112 c #FDC949",
"113 c #FDC151",
"114 c #FDC357",
"115 c #FDC558",
"116 c #FCC45E",
"117 c #FFCD5B",
"118 c #FFD241",
"119 c #FFD642",
"120 c #FFD645",
"121 c #FED54D",
"122 c #FFD942",
"123 c #FFD945",
"124 c #FFDF43",
"125 c #FFDE45",
"126 c #FFD949",
"127 c #FFDB4C",
"128 c #FFDD4B",
"129 c #FFDD4D",
"130 c #FED856",
"131 c #FDD95B",
"132 c #FCCA62",
"133 c #FCCF6D",
"134 c #FFCC78",
"135 c #FCD16E",
"136 c #FCD66F",
"137 c #FFDD68",
"138 c #FCD772",
"139 c #FFE442",
"140 c #FFE349",
"141 c #FFE54E",
"142 c #FFEA4E",
"143 c #FFE152",
"144 c #FFE455",
"145 c #FFE658",
"146 c #FFED51",
"147 c #FFED55",
"148 c #FFEC5E",
"149 c #FFE768",
"150 c #FEE56D",
"151 c #FFEE60",
"152 c #FFEA6C",
"153 c #FFF06B",
"154 c #859BB7",
"155 c #879CB7",
"156 c #879CBA",
"157 c #91A1B3",
"158 c #89A0C0",
"159 c #8DAACE",
"160 c #95AECE",
"161 c #9AB2CE",
"162 c #A9B8CE",
"163 c #AEBBCF",
"164 c #A7B8D0",
"165 c #BCC0BE",
"166 c #BFC4BB",
"167 c #AEC1D6",
"168 c #BCC1C5",
"169 c #B8C1CE",
"170 c #B9C2CF",
"171 c #BAC2CD",
"172 c #B7C5D8",
"173 c #BACADC",
"174 c #B6C9E1",
"175 c #CFCDB5",
"176 c #DAD2B7",
"177 c #FBC884",
"178 c #F7D99B",
"179 c #F9D295",
"180 c #FAD595",
"181 c #FFD699",
"182 c #FBD992",
"183 c #E3D5A8",
"184 c #F9D9AA",
"185 c #F9DBAC",
"186 c #F9DFB0",
"187 c #F8DBB9",
"188 c #F8DCBA",
"189 c #FFE483",
"190 c #F7E895",
"191 c #FFEA98",
"192 c #FFED99",
"193 c #FFF084",
"194 c #FFF19A",
"195 c #EFE5B9",
"196 c #F2EABC",
"197 c #F8E7BE",
"198 c #C1CDDB",
"199 c #C2CFDD",
"200 c #CAD1DA",
"201 c #D1D7DE",
"202 c #C4D1E2",
"203 c #D1D7E2",
"204 c #D2D9E1",
"205 c #D5DCE4",
"206 c #D9DDE3",
"207 c #DBDFE4",
"208 c #F5E2C6",
"209 c #F4E4C2",
"210 c #F5E3CD",
"211 c #F3E8CC",
"212 c #F9EBC0",
"213 c #F8ECC0",
"214 c #FFEBC9",
"215 c #F5E6D4",
"216 c #F6E9D5",
"217 c #F5E9D8",
"218 c #F6EADE",
"219 c #F5EDDA",
"220 c #E6E9EA",
"221 c #E9EAEB",
"222 c #E8EAEC",
"223 c #EBEBED",
"224 c #EFEEEB",
"225 c #EDECEC",
"226 c #EDEDEE",
"227 c #EEEDED",
"228 c #EEEEED",
"229 c #EEEEEE",
"230 c #EFEFF0",
"231 c #EFF0F1",
"232 c #EFF0F4",
"233 c #F0ECE4",
"234 c #F5EEE3",
"235 c #F5EEE4",
"236 c #F1EEE9",
"237 c #F0EFEF",
"238 c #F1F0EF",
"239 c #F2F0EE",
"240 c #F4F2EE",
"241 c Gray94",
"242 c #F0F0F3",
"243 c #F2F1F0",
"244 c #F3F2F1",
"245 c Gray95",
"246 c #F1F2F4",
"247 c #F3F4F7",
"248 c #F4F2F1",
"249 c #F4F2F2",
"250 c #F5F4F2",
"251 c #F4F4F4",
"252 c #F3F5F8",
"253 c #F4F6F9",
"254 c #F5F9FD",
"255 c #FFFCF3",
"225225225225225225225225225228238238238238238228225225225225225225225225225",
"226225226225226225226228239220207206206206207221238226225226225226225226225",
"226225226225226225229221167079034036035026047074200238226225226225226225226",
"227227227227227227238198018174159033052048044022049201238227227227227227227",
"229229229229229229243172077254202011047045041040004169244229229229229229229",
"229229229229230229248172010080058009030042040021003170244229229229229229229",
"229229229238226223226203164162162163070024021021003171240224224230228229229",
"230229243205081076076069072071071070061038021020000168193150150211230229230",
"230238220078060054054050037029028024039021021019000168152141125131233231230",
"237248173017065065055053051047042040021021019019000165149128126108209242237",
"241250161017065055055052046023012008007006005002062183125120119096178232241",
"238250160016059055051031027075158156156155154157176137122118105091180246241",
"238250160016055053030068175190194194194192191189123119118105101088179246238",
"243250161014053048032166153147147147141140124122120118105101097087179246231",
"243250199015052043064195146151148145144129126120109104097097094082208246243",
"243249222067013025063196146148145143129123110102100095093084082113236245243",
"245245250204073066071196142145143127130138135133133132115114116210246245245",
"244244244251231230232213139143129119136186185184184215244239239251245244244",
"244244244249249249247212111127126109102089103117082187252245245244244244244",
"245245245245245245247197107120118105101087214255099187247245245245245245245",
"251251251251251251247219121106102097097092134181086217247251251251251251251",
"250249250249250249250247216182112090083082085177216247250249250249250249250",
"251251251251251251251251247251235218218218234251247251251251251251251251251",
"251251251251251251251251251251253253253253253251251251251251251251251251251"
};
