/* XPM */
static char *Pixmap[] = {
"24 24 256 3",
"000 c black",
"001 c #010101",
"002 c #020202",
"003 c #070707",
"004 c Gray5",
"005 c Gray6",
"006 c #1E1E1E",
"007 c Gray13",
"008 c #222222",
"009 c Gray14",
"010 c Gray16",
"011 c Gray19",
"012 c Gray20",
"013 c #343434",
"014 c Gray22",
"015 c #393939",
"016 c #3A3A3A",
"017 c Gray24",
"018 c #414141",
"019 c #444444",
"020 c Gray27",
"021 c Gray29",
"022 c #4E4E4E",
"023 c #505050",
"024 c #515151",
"025 c Gray32",
"026 c dimgray",
"027 c #555555",
"028 c #565656",
"029 c #5A5A5A",
"030 c #5B5B5B",
"031 c #5D5D5D",
"032 c Gray37",
"033 c #606060",
"034 c Gray38",
"035 c #626262",
"036 c #656565",
"037 c Gray40",
"038 c Gray41",
"039 c #6C6C6C",
"040 c #6D6D6D",
"041 c #6F6F6F",
"042 c Gray44",
"043 c #717171",
"044 c #727272",
"045 c Gray46",
"046 c #767676",
"047 c #777777",
"048 c Gray47",
"049 c #797979",
"050 c #7B7B7B",
"051 c #7C7C7C",
"052 c Gray49",
"053 c Gray",
"054 c Gray50",
"055 c #CF0000",
"056 c #D00200",
"057 c #D40400",
"058 c #DC0000",
"059 c #DC0100",
"060 c #DD0000",
"061 c #DE0000",
"062 c #DF0700",
"063 c #E70000",
"064 c #E80000",
"065 c #F70000",
"066 c #F80000",
"067 c #F90000",
"068 c #F80300",
"069 c #F03D2C",
"070 c #F03F2E",
"071 c #F04436",
"072 c #D2736E",
"073 c #D2746F",
"074 c #DC7671",
"075 c #DF7975",
"076 c #E07B76",
"077 c #EA7E79",
"078 c #EA7F7A",
"079 c #F97F79",
"080 c #FA877F",
"081 c #808080",
"082 c Gray51",
"083 c #848484",
"084 c #868686",
"085 c Gray53",
"086 c Gray54",
"087 c Gray55",
"088 c #8D8D8D",
"089 c #8E8E8E",
"090 c Gray56",
"091 c #909090",
"092 c Gray57",
"093 c #929292",
"094 c #939393",
"095 c Gray58",
"096 c #959595",
"097 c #989898",
"098 c #9A9A9A",
"099 c Gray61",
"100 c #9D9D9D",
"101 c #A0A0A0",
"102 c Gray63",
"103 c Gray64",
"104 c #A5A5A5",
"105 c Gray65",
"106 c #A7A7A7",
"107 c #AAAAAA",
"108 c Gray67",
"109 c Gray68",
"110 c #AEAEAE",
"111 c #AFAFAF",
"112 c Gray69",
"113 c Gray71",
"114 c #B7B7B7",
"115 c #B9B9B9",
"116 c Gray73",
"117 c #BBBBBB",
"118 c #BCBCBC",
"119 c Gray74",
"120 c #BEBEBE",
"121 c #D5BAB9",
"122 c #DBB8B6",
"123 c #F28F8A",
"124 c #F98680",
"125 c #FA8680",
"126 c #FA8781",
"127 c #F2908B",
"128 c #FA9B94",
"129 c #FA9B95",
"130 c #FB9C94",
"131 c #FB9D96",
"132 c #FCB9B5",
"133 c #FCBCB8",
"134 c #E2C0BE",
"135 c #C0C0C0",
"136 c #C1C1C1",
"137 c Gray76",
"138 c Gray77",
"139 c #C5C5C5",
"140 c Gray79",
"141 c #CACACA",
"142 c Gray80",
"143 c #CDCDCD",
"144 c Gray81",
"145 c #D0D0D0",
"146 c #D2D2D2",
"147 c #D3D3D3",
"148 c Gray83",
"149 c #D5D5D5",
"150 c Gray84",
"151 c #D6D6D7",
"152 c #D7D7D7",
"153 c #D8D8D8",
"154 c Gray85",
"155 c #D8DAD9",
"156 c #D8DADA",
"157 c #D9DBDB",
"158 c #DADADA",
"159 c Gray86",
"160 c gainsboro",
"161 c #DDDDDD",
"162 c Gray87",
"163 c #DEDFDF",
"164 c #DFDFDF",
"165 c #E3C5C5",
"166 c #EDC8C7",
"167 c #EDCECD",
"168 c #EFD1D0",
"169 c #F5D2D0",
"170 c #F5D8D6",
"171 c #FBD2D0",
"172 c #FDD4D2",
"173 c #FDD5D3",
"174 c #FDDAD9",
"175 c #FFDBDA",
"176 c Gray88",
"177 c #E1E1E1",
"178 c #E2E2E2",
"179 c #E4E4E4",
"180 c #E4E5E5",
"181 c Gray90",
"182 c #E5E7E7",
"183 c #E6E6E6",
"184 c #E7E7E7",
"185 c Gray91",
"186 c #E9E9E9",
"187 c #EAEAEA",
"188 c Gray92",
"189 c #ECECEC",
"190 c Gray93",
"191 c #EFEFEF",
"192 c #EFF2F2",
"193 c #FEE5E3",
"194 c #FEE8E7",
"195 c Gray94",
"196 c #F0F1F1",
"197 c #F1F1F1",
"198 c #F3F3F3",
"199 c #F4F4F4",
"200 c Gray96",
"201 c #F6F6F6",
"202 c Gray97",
"203 c #F7F8F8",
"204 c #F7F9F8",
"205 c #F7F9F9",
"206 c #FCF3F3",
"207 c #FCF6F5",
"208 c #F8F8F8",
"209 c #F9F9F9",
"210 c Gray98",
"211 c #FBFBFB",
"212 c #FCFAF9",
"213 c #FCFAFA",
"214 c Gray99",
"215 c #FCFDFD",
"216 c #FDFDFD",
"217 c #FEFCFD",
"218 c #FFFDFE",
"219 c #FEFEFE",
"220 c #FFFEFF",
"221 c Gray100",
"222 c black",
"223 c black",
"224 c black",
"225 c black",
"226 c black",
"227 c black",
"228 c black",
"229 c black",
"230 c black",
"231 c black",
"232 c black",
"233 c black",
"234 c black",
"235 c black",
"236 c black",
"237 c black",
"238 c black",
"239 c black",
"240 c black",
"241 c black",
"242 c black",
"243 c black",
"244 c black",
"245 c black",
"246 c black",
"247 c black",
"248 c black",
"249 c black",
"250 c black",
"251 c black",
"252 c black",
"253 c black",
"254 c black",
"255 c black",
"221221221221221221221221200146106100096102143197221221221221221221221221",
"221221221221221221200145110101097092088092092099137190221221221221221221",
"221221221221221160108094082050084090089083049053054085141209221221221221",
"221221221221142099082081110146179188190184147107051050043112198221221221",
"221221221144098051100158199216221221220221221211160095048039110198221221",
"221221178098051104186216221221221218220218218221221197100048031136208221",
"221210107084095185221221221221221218221221217220221221197084029041162211",
"221158090050148221221221221221221221220221221221221221221150031021109188",
"221112042097200221221221133131130194193128129132221221221202050022049144",
"188090027117221221221221080066065174172065065079221221221184091024028110",
"146048025152221221221221126066067175173065065125221221186179105022019091",
"139038025179210187163156072057058168171066068124204159146190115021017054",
"135033021142159150152155073056055121122060062074157151176198137017013049",
"140029011138185181181182076061061165134058059075182180189202118009012052",
"162037000111199191191192078064064167166063064077196191201211100000017086",
"195087000043201208202205127071070170169069071123205203216197027000027100",
"210120000000141221214215207206206213212206206207215216221113000001045114",
"221179036000020188221221221221221221221221221221221221164006000014098149",
"221202116005000035188221221221221221221221221221221176020000005040136191",
"221219185096000000018140216221221221221221221209119007000000028103183216",
"221221211158085000000000038113154184183150110030000000003024096153210221",
"221221221202150094016000000000000000000000000000000010032097147202221221",
"221221221221208161111047020008004002002004006015029081110160208221221221",
"221221221221221209178118095044030025023026034046093116177209221221221221"
};
