/* XPM */
static char * tool_xpm[] = {
"80 107 1509 2",
"  	c None",
". 	c #FFFFFF",
"+ 	c #FFFEFF",
"@ 	c #FEFFFE",
"# 	c #FEFEFE",
"$ 	c #FEFFFF",
"% 	c #FFFEFE",
"& 	c #FFFFFE",
"* 	c #FEFEFF",
"= 	c #BDBDBC",
"- 	c #8F8E8C",
"; 	c #989595",
"> 	c #959094",
", 	c #939192",
"' 	c #959593",
") 	c #949391",
"! 	c #949293",
"~ 	c #939194",
"{ 	c #9A9B99",
"] 	c #D4D6D0",
"^ 	c #FEFDFF",
"/ 	c #FFFDFF",
"( 	c #FEFCFF",
"_ 	c #FDFFFE",
": 	c #FDFEFD",
"< 	c #FAFAFA",
"[ 	c #FDFDFD",
"} 	c #777776",
"| 	c #171716",
"1 	c #202022",
"2 	c #222126",
"3 	c #1D1F1E",
"4 	c #202123",
"5 	c #1F2023",
"6 	c #1F2022",
"7 	c #202124",
"8 	c #1E1D1F",
"9 	c #262424",
"0 	c #4C4B48",
"a 	c #6E6D6C",
"b 	c #69676A",
"c 	c #696768",
"d 	c #676566",
"e 	c #6C6869",
"f 	c #6D6769",
"g 	c #6C6769",
"h 	c #6B6768",
"i 	c #6F6B6C",
"j 	c #6E6A6B",
"k 	c #6A6667",
"l 	c #D8D6D8",
"m 	c #FCFEFD",
"n 	c #FDFEFE",
"o 	c #FEFDFE",
"p 	c #FBFBFB",
"q 	c #727272",
"r 	c #474849",
"s 	c #ADAFB3",
"t 	c #B2B5BA",
"u 	c #B3B7BD",
"v 	c #B5BBBF",
"w 	c #B0B8BF",
"x 	c #B1B9BE",
"y 	c #B2BABE",
"z 	c #B3BBBE",
"A 	c #B3BAC1",
"B 	c #B3BBC1",
"C 	c #9E9FA3",
"D 	c #1E1B1E",
"E 	c #251F22",
"F 	c #2B2A2E",
"G 	c #2E3237",
"H 	c #2D2F34",
"I 	c #35343A",
"J 	c #323136",
"K 	c #323137",
"L 	c #343237",
"M 	c #363135",
"N 	c #343235",
"O 	c #333237",
"P 	c #343238",
"Q 	c #343336",
"R 	c #313033",
"S 	c #333235",
"T 	c #302F32",
"U 	c #2B2A2C",
"V 	c #1E1D1E",
"W 	c #454445",
"X 	c #868785",
"Y 	c #D0D0CE",
"Z 	c #EAEAE8",
"` 	c #F8F8F6",
" .	c #717172",
"..	c #404346",
"+.	c #B5BBC0",
"@.	c #C0C8D0",
"#.	c #C0C9D1",
"$.	c #C1C9CF",
"%.	c #C3CCD3",
"&.	c #C2CBD3",
"*.	c #C3CCD2",
"=.	c #C3CCD1",
"-.	c #C4CDD2",
";.	c #C5CED4",
">.	c #C5CED5",
",.	c #A6ABAF",
"'.	c #17161B",
").	c #3F3C40",
"!.	c #9CA2A6",
"~.	c #B7C4C8",
"{.	c #BEC8CE",
"].	c #C3C5CD",
"^.	c #C2CBD1",
"/.	c #C6CDD0",
"(.	c #C6CDD1",
"_.	c #C8CFD2",
":.	c #C2CCD0",
"<.	c #C3CDD0",
"[.	c #C5CFD3",
"}.	c #C4CDD1",
"|.	c #A2ABAE",
"1.	c #666D70",
"2.	c #40474A",
"3.	c #2E2E31",
"4.	c #1C1A1C",
"5.	c #423E40",
"6.	c #8A8688",
"7.	c #C8C6C7",
"8.	c #E7E8E7",
"9.	c #FAFEFB",
"0.	c #FCFCFC",
"a.	c #727273",
"b.	c #45474B",
"c.	c #A9B1B9",
"d.	c #BDC8D1",
"e.	c #BFC8CF",
"f.	c #C0C9D0",
"g.	c #C1CACF",
"h.	c #C2CBD0",
"i.	c #AAB3B9",
"j.	c #65686D",
"k.	c #73757A",
"l.	c #9FAAAF",
"m.	c #B3C4CB",
"n.	c #B0C0C8",
"o.	c #BCC8CE",
"p.	c #BDC9D0",
"q.	c #C0CAD1",
"r.	c #C1CCD1",
"s.	c #C1CBD0",
"t.	c #C2CCD1",
"u.	c #C2CDD1",
"v.	c #C6D0D7",
"w.	c #C3CDD5",
"x.	c #C4CED6",
"y.	c #C0CBD2",
"z.	c #AFBAC1",
"A.	c #ADB8BE",
"B.	c #ADB9BE",
"C.	c #97A0A7",
"D.	c #757B81",
"E.	c #51535A",
"F.	c #313136",
"G.	c #252425",
"H.	c #565454",
"I.	c #A29E9C",
"J.	c #D4D3D2",
"K.	c #727172",
"L.	c #46474C",
"M.	c #A9B2BB",
"N.	c #B3C1CA",
"O.	c #BBC8D0",
"P.	c #BEC6CE",
"Q.	c #C0C9CF",
"R.	c #C0C9CE",
"S.	c #B2BBC4",
"T.	c #B9C1C7",
"U.	c #B1B9BD",
"V.	c #AEBBC0",
"W.	c #B2C1C9",
"X.	c #AEC0C7",
"Y.	c #B1C1C8",
"Z.	c #BCC5CE",
"`.	c #BEC7CE",
" +	c #C1C9D1",
".+	c #C3CAD1",
"++	c #C3CAD0",
"@+	c #C3CBD0",
"#+	c #C4C9D3",
"$+	c #C6CED7",
"%+	c #C4CCD5",
"&+	c #C2CAD3",
"*+	c #B0B9C2",
"=+	c #A7B0BA",
"-+	c #A8B1BB",
";+	c #A6B6BE",
">+	c #A6B7BE",
",+	c #ABB8BF",
"'+	c #949DA1",
")+	c #767A7F",
"!+	c #4E4D51",
"~+	c #251E23",
"{+	c #3D3B3C",
"]+	c #7C7C7C",
"^+	c #CECECE",
"/+	c #747174",
"(+	c #43444A",
"_+	c #A9B4BC",
":+	c #B2C2CA",
"<+	c #B5C1C8",
"[+	c #BFC5CC",
"}+	c #C1CAD3",
"|+	c #C1CAD2",
"1+	c #C1CAD0",
"2+	c #B5BAC5",
"3+	c #A6AFB5",
"4+	c #A5B0B4",
"5+	c #ADB7BF",
"6+	c #B5BFC8",
"7+	c #B1C0C7",
"8+	c #AFC1C8",
"9+	c #B3C0C8",
"0+	c #B8C4CA",
"a+	c #BDC8CE",
"b+	c #C1CBCF",
"c+	c #C4CCD2",
"d+	c #C3CBD1",
"e+	c #C4CED3",
"f+	c #C0CBD0",
"g+	c #ACB9C0",
"h+	c #A4B1B8",
"i+	c #A4B3BB",
"j+	c #A7B3BB",
"k+	c #A4B3BA",
"l+	c #A3B3BA",
"m+	c #A4B5BB",
"n+	c #A8B8BD",
"o+	c #A0ABB2",
"p+	c #848B94",
"q+	c #5B5C5E",
"r+	c #222121",
"s+	c #3A3A39",
"t+	c #848484",
"u+	c #737172",
"v+	c #44474A",
"w+	c #A9B5BB",
"x+	c #B1C2CA",
"y+	c #AFBFC6",
"z+	c #B5C2C9",
"A+	c #BCC6CF",
"B+	c #BFCAD0",
"C+	c #C2CCCF",
"D+	c #C4CED1",
"E+	c #B2BAC4",
"F+	c #9CA5AC",
"G+	c #9AA2A8",
"H+	c #A9B4BA",
"I+	c #B3C0C9",
"J+	c #AFC0C8",
"K+	c #B0C2C9",
"L+	c #B0BFC6",
"M+	c #B2C0C7",
"N+	c #BAC6CD",
"O+	c #C0CACF",
"P+	c #C2CAD0",
"Q+	c #C2CBCE",
"R+	c #C2CCCE",
"S+	c #C0CACD",
"T+	c #C6D2D5",
"U+	c #BBC9CD",
"V+	c #ACB9BF",
"W+	c #A4B2B9",
"X+	c #A7B2BB",
"Y+	c #A6B3BC",
"Z+	c #A6B2BB",
"`+	c #A7B3BC",
" @	c #A7B5BE",
".@	c #9FACB3",
"+@	c #969FA4",
"@@	c #606468",
"#@	c #222125",
"$@	c #454043",
"%@	c #A7A4A5",
"&@	c #FEFCFD",
"*@	c #727171",
"=@	c #434649",
"-@	c #AEBFC6",
";@	c #B4BFC8",
">@	c #BAC4CC",
",@	c #BEC9CF",
"'@	c #C1CCD2",
")@	c #C3CCD0",
"!@	c #AFB8BF",
"~@	c #8D9499",
"{@	c #949CA2",
"]@	c #B4C2CB",
"^@	c #B0BEC7",
"/@	c #B2C1C8",
"(@	c #B1BFC7",
"_@	c #B4C0C9",
":@	c #B1BBC2",
"<@	c #A5B2B8",
"[@	c #A2B2BA",
"}@	c #A4B3B9",
"|@	c #A8B5BC",
"1@	c #A9B6BC",
"2@	c #A7B4BA",
"3@	c #A8B6BC",
"4@	c #A6B6BC",
"5@	c #A8B6BE",
"6@	c #A7B4BC",
"7@	c #A3AEB4",
"8@	c #99A1A6",
"9@	c #494C4F",
"0@	c #1F1F20",
"a@	c #6B6868",
"b@	c #EBE8E8",
"c@	c #727071",
"d@	c #B0C0C7",
"e@	c #B0BEC6",
"f@	c #B2BFC7",
"g@	c #BBC6CC",
"h@	c #B0B7BE",
"i@	c #82878D",
"j@	c #899197",
"k@	c #A3AEB6",
"l@	c #B2C0C9",
"m@	c #B3C0C6",
"n@	c #B4C1C9",
"o@	c #B6C3C9",
"p@	c #C6CED6",
"q@	c #C2C9D1",
"r@	c #C0C7CF",
"s@	c #AFB7BE",
"t@	c #A4B1B6",
"u@	c #A4B6BA",
"v@	c #A6B0B5",
"w@	c #879193",
"x@	c #6E7679",
"y@	c #6D7578",
"z@	c #7C8487",
"A@	c #949D9F",
"B@	c #A8B2B5",
"C@	c #A9B2BA",
"D@	c #A6AFB8",
"E@	c #A7B5BC",
"F@	c #A2B3B9",
"G@	c #A3B1B4",
"H@	c #767D7F",
"I@	c #232224",
"J@	c #413F40",
"K@	c #D0CECF",
"L@	c #FFFFFD",
"M@	c #FEFEFC",
"N@	c #FEFEFD",
"O@	c #BAC5CC",
"P@	c #BDC9CF",
"Q@	c #ACB1B7",
"R@	c #7B8187",
"S@	c #80898F",
"T@	c #A2AFB7",
"U@	c #B3C4CC",
"V@	c #B2C2C9",
"W@	c #B1C0C5",
"X@	c #B1C1C9",
"Y@	c #B4BEC7",
"Z@	c #BCC7CF",
"`@	c #BECAD0",
" #	c #AEB9BF",
".#	c #A7B1B7",
"+#	c #8A939A",
"@#	c #37373C",
"##	c #242124",
"$#	c #2D2A2D",
"%#	c #2E2C2E",
"&#	c #2A282B",
"*#	c #2E2B2F",
"=#	c #595A5E",
"-#	c #94999F",
";#	c #A3ADB3",
">#	c #A6B4BB",
",#	c #A7B5BD",
"'#	c #ABB7BD",
")#	c #8D959B",
"!#	c #38393C",
"~#	c #292728",
"{#	c #BAB8B9",
"]#	c #F8F7F5",
"^#	c #FFFEFC",
"/#	c #AFC0C7",
"(#	c #B2C0C8",
"_#	c #B4C1C8",
":#	c #B7C2C8",
"<#	c #AAB1B7",
"[#	c #62696C",
"}#	c #6F777A",
"|#	c #A2ACB2",
"1#	c #B6C4CB",
"2#	c #B0BFC4",
"3#	c #B3C1C7",
"4#	c #B4C1C7",
"5#	c #B3C2C9",
"6#	c #B3C1C9",
"7#	c #B2C4CA",
"8#	c #B2C4C7",
"9#	c #A7B4B7",
"0#	c #7C8186",
"a#	c #29272D",
"b#	c #444042",
"c#	c #B4B0B1",
"d#	c #EAE7E8",
"e#	c #EEEBEB",
"f#	c #DEDADB",
"g#	c #BCB8B9",
"h#	c #817D7E",
"i#	c #474645",
"j#	c #232424",
"k#	c #47484D",
"l#	c #91939C",
"m#	c #A3AAB3",
"n#	c #ACB6BF",
"o#	c #ACBCC4",
"p#	c #9AA3A9",
"q#	c #48494C",
"r#	c #171718",
"s#	c #A19FA1",
"t#	c #FBFBF9",
"u#	c #737272",
"v#	c #444749",
"w#	c #A8B4BA",
"x#	c #B0C1C9",
"y#	c #B1C1C7",
"z#	c #B0C0C6",
"A#	c #969EA3",
"B#	c #111518",
"C#	c #2C2E30",
"D#	c #7D8182",
"E#	c #979FA3",
"F#	c #AFBCC2",
"G#	c #AFBBC1",
"H#	c #AEBAC0",
"I#	c #ADBAC1",
"J#	c #ADB9C0",
"K#	c #ACB8C0",
"L#	c #A9B5BD",
"M#	c #A8B2B8",
"N#	c #A6B2BA",
"O#	c #A1AEB5",
"P#	c #9FAEB2",
"Q#	c #919B9E",
"R#	c #767C7E",
"S#	c #28282B",
"T#	c #544F52",
"U#	c #E1E1E1",
"V#	c #FEFFFD",
"W#	c #F9F8F7",
"X#	c #B2B1AF",
"Y#	c #5F5A5C",
"Z#	c #292529",
"`#	c #57585E",
" $	c #969DA4",
".$	c #ABB7BF",
"+$	c #A5ACB2",
"@$	c #505357",
"#$	c #16171A",
"$$	c #9F9D9E",
"%$	c #45494C",
"&$	c #ADB9BF",
"*$	c #B4C6CE",
"=$	c #B3C5CC",
"-$	c #B6C6CE",
";$	c #B6C6CD",
">$	c #B5C5CD",
",$	c #B4C5CC",
"'$	c #A0A6AE",
")$	c #1B1B1E",
"!$	c #1D1817",
"~$	c #2A2524",
"{$	c #2F2F32",
"]$	c #9BA1A8",
"^$	c #B2BAC1",
"/$	c #ACB6BD",
"($	c #A8B2B9",
"_$	c #A4ADB4",
":$	c #9FA9AF",
"<$	c #959CA3",
"[$	c #90979D",
"}$	c #8A949A",
"|$	c #858B93",
"1$	c #77787F",
"2$	c #2C292E",
"3$	c #231E22",
"4$	c #0C0A0B",
"5$	c #C2C1BE",
"6$	c #FDFDFE",
"7$	c #F7F5F3",
"8$	c #A8A7A4",
"9$	c #464645",
"0$	c #28292C",
"a$	c #75797E",
"b$	c #A4B0B8",
"c$	c #ADBAC3",
"d$	c #A6ADB3",
"e$	c #57575B",
"f$	c #1E1C1E",
"g$	c #AFADAE",
"h$	c #757374",
"i$	c #2C2B2D",
"j$	c #626567",
"k$	c #676C6F",
"l$	c #64696C",
"m$	c #676B6F",
"n$	c #666A6E",
"o$	c #666A6F",
"p$	c #656A6E",
"q$	c #5C5D60",
"r$	c #212021",
"s$	c #706C6C",
"t$	c #837F7E",
"u$	c #211F20",
"v$	c #9B9FA3",
"w$	c #B9C1C8",
"x$	c #B0B9BF",
"y$	c #A3ACB3",
"z$	c #9DA6AD",
"A$	c #979FA6",
"B$	c #91989F",
"C$	c #8C9399",
"D$	c #858E94",
"E$	c #81858B",
"F$	c #6C6B71",
"G$	c #2A272A",
"H$	c #868384",
"I$	c #A2A1A1",
"J$	c #E6E6E5",
"K$	c #FDFDFC",
"L$	c #D6D7D5",
"M$	c #6F6F6F",
"N$	c #535659",
"O$	c #9DA4AA",
"P$	c #AEB8C1",
"Q$	c #A0A9B1",
"R$	c #3D4144",
"S$	c #383837",
"T$	c #D8D8D6",
"U$	c #817F80",
"V$	c #2A2829",
"W$	c #333132",
"X$	c #343132",
"Y$	c #333031",
"Z$	c #353334",
"`$	c #313130",
" %	c #393A39",
".%	c #B3B2B3",
"+%	c #D2D0CF",
"@%	c #353433",
"#%	c #8B8F92",
"$%	c #B6BFC6",
"%%	c #B0B9BE",
"&%	c #A9B2B8",
"*%	c #98A0A8",
"=%	c #9299A0",
"-%	c #868F94",
";%	c #83878B",
">%	c #636467",
",%	c #3C3C3D",
"'%	c #D6D6D6",
")%	c #F3F3F3",
"!%	c #AAABAA",
"~%	c #373536",
"{%	c #35363A",
"]%	c #8C959D",
"^%	c #A9B3BD",
"/%	c #949BA0",
"(%	c #252829",
"_%	c #6A6968",
":%	c #FEFDFD",
"<%	c #F2F1F1",
"[%	c #EBEBEB",
"}%	c #ECECEC",
"|%	c #EAEAEA",
"1%	c #E9E9E9",
"2%	c #FDFCFD",
"3%	c #D3D2D1",
"4%	c #878B8F",
"5%	c #B3BCC3",
"6%	c #84888C",
"7%	c #414142",
"8%	c #E1E1E0",
"9%	c #FDFBFC",
"0%	c #D5D4D6",
"a%	c #4A4A4D",
"b%	c #24252A",
"c%	c #83898D",
"d%	c #ABB2B8",
"e%	c #73777D",
"f%	c #28272A",
"g%	c #ADACAC",
"h%	c #E3E1E1",
"i%	c #3F3F3E",
"j%	c #767A7D",
"k%	c #B5BEC5",
"l%	c #8D939A",
"m%	c #848D92",
"n%	c #82868A",
"o%	c #484849",
"p%	c #EBEBEA",
"q%	c #EEEDEE",
"r%	c #555352",
"s%	c #1A1A1C",
"t%	c #828A90",
"u%	c #9EA4AC",
"v%	c #38373B",
"w%	c #636060",
"x%	c #F1F1F1",
"y%	c #E9E8E7",
"z%	c #696D70",
"A%	c #879095",
"B%	c #808589",
"C%	c #505155",
"D%	c #4D4D4E",
"E%	c #F8F8F7",
"F%	c #FDFDFF",
"G%	c #FFFBF8",
"H%	c #595858",
"I%	c #22272B",
"J%	c #9298A0",
"K%	c #7A7B80",
"L%	c #BCBCBC",
"M%	c #F7F6F5",
"N%	c #4C4B4A",
"O%	c #606367",
"P%	c #B5BDC4",
"Q%	c #8D9399",
"R%	c #858E93",
"S%	c #83888C",
"T%	c #4A4B4F",
"U%	c #505051",
"V%	c #F2F0F1",
"W%	c #3D3E3F",
"X%	c #36383D",
"Y%	c #8E9095",
"Z%	c #8A8889",
"`%	c #FDFCFC",
" &	c #525251",
".&	c #54565A",
"+&	c #B2B8C1",
"@&	c #848E93",
"#&	c #84898D",
"$&	c #424347",
"%&	c #59595A",
"&&	c #FBFCFE",
"*&	c #D2D0CD",
"=&	c #282525",
"-&	c #5D6064",
";&	c #53565A",
">&	c #5A5758",
",&	c #E7E6E7",
"'&	c #FCFDFD",
")&	c #595859",
"!&	c #4B4C52",
"~&	c #B5BBC2",
"{&	c #AAB2B7",
"]&	c #A4ABB2",
"^&	c #9EA6AE",
"/&	c #9AA1A8",
"(&	c #949AA0",
"_&	c #8E9399",
":&	c #899094",
"<&	c #83888D",
"[&	c #3B3C3F",
"}&	c #636161",
"|&	c #FBFDFE",
"1&	c #FCFDFE",
"2&	c #FDFFFF",
"3&	c #FFFDFB",
"4&	c #82807E",
"5&	c #2F3133",
"6&	c #5C5E61",
"7&	c #D3D3D3",
"8&	c #FDFCFF",
"9&	c #FDFEFA",
"0&	c #686669",
"a&	c #424247",
"b&	c #B2B9BC",
"c&	c #B1BBC0",
"d&	c #AAB3BA",
"e&	c #A3ABB4",
"f&	c #9DA6AF",
"g&	c #98A0A9",
"h&	c #929AA1",
"i&	c #8B929A",
"j&	c #8A8E96",
"k&	c #838A93",
"l&	c #36373A",
"m&	c #746F6B",
"n&	c #FAFEFF",
"o&	c #D8D8D8",
"p&	c #272727",
"q&	c #272726",
"r&	c #2C2D2D",
"s&	c #CFCFCF",
"t&	c #FDFEFB",
"u&	c #FAFCFA",
"v&	c #787677",
"w&	c #3D3F40",
"x&	c #ADB6B8",
"y&	c #B1BABD",
"z&	c #AAB3B6",
"A&	c #A4ACB0",
"B&	c #9EA7AB",
"C&	c #99A0A5",
"D&	c #949A9E",
"E&	c #8E9497",
"F&	c #898F97",
"G&	c #878F94",
"H&	c #2E2E30",
"I&	c #7F7B77",
"J&	c #FBFFFF",
"K&	c #FCFDFA",
"L&	c #F7F7F7",
"M&	c #9F9F9F",
"N&	c #484848",
"O&	c #909090",
"P&	c #FDFFFA",
"Q&	c #838483",
"R&	c #323639",
"S&	c #A8B1B7",
"T&	c #B0B9C0",
"U&	c #9DA7AF",
"V&	c #98A1A7",
"W&	c #939BA0",
"X&	c #8C959A",
"Y&	c #828C8E",
"Z&	c #8B9394",
"`&	c #282928",
" *	c #898786",
".*	c #FDFEFF",
"+*	c #F8F8F8",
"@*	c #F4F4F4",
"#*	c #FCFCFD",
"$*	c #979897",
"%*	c #2A2E30",
"&*	c #B1B5BE",
"**	c #B4BCC2",
"=*	c #ADB5BD",
"-*	c #A6B0B7",
";*	c #A0A9B0",
">*	c #99A2A9",
",*	c #929CA2",
"'*	c #8D949A",
")*	c #8A8F98",
"!*	c #8E8F94",
"~*	c #232126",
"{*	c #9A9A9B",
"]*	c #FDFDFA",
"^*	c #FDFEF8",
"/*	c #FDFCFE",
"(*	c #F0F1F0",
"_*	c #565351",
":*	c #2E241D",
"<*	c #5A473E",
"[*	c #5E5348",
"}*	c #594E45",
"|*	c #574D44",
"1*	c #574E46",
"2*	c #564D45",
"3*	c #534A40",
"4*	c #51473C",
"5*	c #54463B",
"6*	c #2A1F19",
"7*	c #5F5C5F",
"8*	c #F4F5F9",
"9*	c #FCFCFA",
"0*	c #FFFDFE",
"a*	c #FFFDFD",
"b*	c #9B9B9B",
"c*	c #2F241E",
"d*	c #886A50",
"e*	c #B4895B",
"f*	c #BE8856",
"g*	c #B68152",
"h*	c #B07D50",
"i*	c #AE7C50",
"j*	c #AD7C4F",
"k*	c #AB7A4E",
"l*	c #A8764A",
"m*	c #8D6B44",
"n*	c #926E4B",
"o*	c #755D47",
"p*	c #2D2723",
"q*	c #A8A7A9",
"r*	c #FEFFFB",
"s*	c #747276",
"t*	c #443228",
"u*	c #A67C53",
"v*	c #C38A49",
"w*	c #AF8052",
"x*	c #AA7C4D",
"y*	c #A8794D",
"z*	c #A77A50",
"A*	c #A87B51",
"B*	c #A97C53",
"C*	c #A87A51",
"D*	c #A37146",
"E*	c #8D6138",
"F*	c #8A694C",
"G*	c #332820",
"H*	c #808081",
"I*	c #FCFEFC",
"J*	c #FDFFFC",
"K*	c #6E6C71",
"L*	c #4D3828",
"M*	c #AD7F51",
"N*	c #BE8B57",
"O*	c #AA7C52",
"P*	c #AA7B52",
"Q*	c #AA7B51",
"R*	c #AA7A50",
"S*	c #A8794F",
"T*	c #87653F",
"U*	c #866340",
"V*	c #3B2C22",
"W*	c #797A7E",
"X*	c #FEFFFC",
"Y*	c #FCFDFC",
"Z*	c #6D6A70",
"`*	c #4D3929",
" =	c #AE7F50",
".=	c #BE8B54",
"+=	c #AB7C52",
"@=	c #A97A50",
"#=	c #87643E",
"$=	c #876340",
"%=	c #3B2D23",
"&=	c #78787B",
"*=	c #F9F9F9",
"==	c #69676D",
"-=	c #513C2B",
";=	c #AE7F4F",
">=	c #BE8B53",
",=	c #87633F",
"'=	c #3E2E25",
")=	c #757578",
"!=	c #F6F5F5",
"~=	c #656368",
"{=	c #553E2D",
"]=	c #B08051",
"^=	c #A97951",
"/=	c #87633E",
"(=	c #423126",
"_=	c #737274",
":=	c #F2F2F2",
"<=	c #636065",
"[=	c #584231",
"}=	c #B18152",
"|=	c #BE8B52",
"1=	c #A97B50",
"2=	c #AA7A52",
"3=	c #463228",
"4=	c #6F6F70",
"5=	c #EFEFEF",
"6=	c #615D62",
"7=	c #5B4333",
"8=	c #B18150",
"9=	c #A87B52",
"0=	c #89633F",
"a=	c #47342A",
"b=	c #6E6C6D",
"c=	c #EEEEED",
"d=	c #5F5B60",
"e=	c #5C4533",
"f=	c #B18250",
"g=	c #BF8C53",
"h=	c #AA7B50",
"i=	c #88623E",
"j=	c #493629",
"k=	c #6B6A6B",
"l=	c #FBFBFA",
"m=	c #E9E9EA",
"n=	c #575959",
"o=	c #614730",
"p=	c #B58253",
"q=	c #BD8A53",
"r=	c #AA7A51",
"s=	c #8B633F",
"t=	c #84623F",
"u=	c #4D3928",
"v=	c #676668",
"w=	c #E6E7E8",
"x=	c #545657",
"y=	c #614831",
"z=	c #B48253",
"A=	c #856340",
"B=	c #4F3B2A",
"C=	c #656465",
"D=	c #F5F5F5",
"E=	c #E4E5E5",
"F=	c #515354",
"G=	c #634A33",
"H=	c #B58352",
"I=	c #8C6440",
"J=	c #866441",
"K=	c #513D2C",
"L=	c #626163",
"M=	c #E1E2E2",
"N=	c #4E5051",
"O=	c #664D35",
"P=	c #B78653",
"Q=	c #BC8951",
"R=	c #A97A51",
"S=	c #533F2E",
"T=	c #605F61",
"U=	c #F0F0EF",
"V=	c #DEDEDF",
"W=	c #4B4C4D",
"X=	c #684F37",
"Y=	c #B88654",
"Z=	c #BC8950",
"`=	c #A87950",
" -	c #8C6541",
".-	c #876240",
"+-	c #554131",
"@-	c #5E5D5E",
"#-	c #EDEDED",
"$-	c #DBDCDC",
"%-	c #47494A",
"&-	c #6A5139",
"*-	c #B98755",
"=-	c #AA7B4F",
"--	c #8D6541",
";-	c #564231",
">-	c #5A5959",
",-	c #D9DADA",
"'-	c #454748",
")-	c #6B523A",
"!-	c #B98853",
"~-	c #8E6740",
"{-	c #886441",
"]-	c #574332",
"^-	c #595657",
"/-	c #E8E8E8",
"(-	c #D6D6D9",
"_-	c #424147",
":-	c #755537",
"<-	c #BB8955",
"[-	c #B98752",
"}-	c #A77A51",
"|-	c #8E6841",
"1-	c #5F452F",
"2-	c #525358",
"3-	c #E5E4E5",
"4-	c #D5D4D7",
"5-	c #414045",
"6-	c #765638",
"7-	c #906942",
"8-	c #604631",
"9-	c #515256",
"0-	c #E4E4E4",
"a-	c #D2D1D4",
"b-	c #3E3D42",
"c-	c #78573A",
"d-	c #BA8955",
"e-	c #916A43",
"f-	c #624833",
"g-	c #4E4F53",
"h-	c #E1E2E1",
"i-	c #CFCECF",
"j-	c #3C3A3E",
"k-	c #7B5B3D",
"l-	c #BB8A55",
"m-	c #B98754",
"n-	c #A97B51",
"o-	c #8A643F",
"p-	c #4A4C4F",
"q-	c #DEDEDE",
"r-	c #CBCACA",
"s-	c #39383A",
"t-	c #7E5E3F",
"u-	c #BA8654",
"v-	c #946B45",
"w-	c #8A633F",
"x-	c #654C34",
"y-	c #47494B",
"z-	c #DBDBDB",
"A-	c #C8C7C8",
"B-	c #363537",
"C-	c #806041",
"D-	c #BC8955",
"E-	c #B98553",
"F-	c #956B45",
"G-	c #8B643E",
"H-	c #674D36",
"I-	c #454646",
"J-	c #D9D9D8",
"K-	c #C7C6C7",
"L-	c #343335",
"M-	c #816142",
"N-	c #BC8A55",
"O-	c #956C46",
"P-	c #8B643D",
"Q-	c #684F35",
"R-	c #434545",
"S-	c #D7D7D6",
"T-	c #C1C1C3",
"U-	c #353235",
"V-	c #846241",
"W-	c #BD8A54",
"X-	c #B88653",
"Y-	c #A97C52",
"Z-	c #966D45",
"`-	c #88633F",
" ;	c #6C5037",
".;	c #3F4245",
"+;	c #C0BFC1",
"@;	c #343133",
"#;	c #856342",
"$;	c #B78551",
"%;	c #A6794F",
"&;	c #896440",
"*;	c #6D5238",
"=;	c #3C4041",
"-;	c #D1D0D0",
";;	c #BCBCBD",
">;	c #332E31",
",;	c #886343",
"';	c #B68451",
");	c #AC7D53",
"!;	c #976C42",
"~;	c #89623E",
"{;	c #72553B",
"];	c #3A3B3D",
"^;	c #D0CDCD",
"/;	c #322D2E",
"(;	c #896543",
"_;	c #8E6843",
":;	c #6F5239",
"<;	c #38393B",
"[;	c #CFCCCC",
"};	c #B7B5B4",
"|;	c #302B2C",
"1;	c #8B6644",
"2;	c #B68450",
"3;	c #966B43",
"4;	c #8D6742",
"5;	c #72543B",
"6;	c #494A4C",
"7;	c #DAD8D8",
"8;	c #B4B2B1",
"9;	c #2F292A",
"0;	c #8C6744",
"a;	c #B48351",
"b;	c #A6784E",
"c;	c #9C714A",
"d;	c #8A6440",
"e;	c #896D55",
"f;	c #6B6C70",
"g;	c #D3D1D1",
"h;	c #B3AFAF",
"i;	c #2E2827",
"j;	c #8D6745",
"k;	c #B28251",
"l;	c #A97B52",
"m;	c #986E45",
"n;	c #997451",
"o;	c #A2866F",
"p;	c #46494D",
"q;	c #C3C2C3",
"r;	c #ADADAE",
"s;	c #2D2826",
"t;	c #8E6842",
"u;	c #BD8B53",
"v;	c #B48153",
"w;	c #A97950",
"x;	c #A97B57",
"y;	c #AB7952",
"z;	c #A97B4C",
"A;	c #AA774F",
"B;	c #AC7D4C",
"C;	c #A37A56",
"D;	c #9F7B5C",
"E;	c #B89778",
"F;	c #826449",
"G;	c #2F3032",
"H;	c #C1C0C1",
"I;	c #A9ABAB",
"J;	c #2B2524",
"K;	c #926944",
"L;	c #BD8C53",
"M;	c #B48154",
"N;	c #A57954",
"O;	c #AB764D",
"P;	c #A97A4C",
"Q;	c #AC7C54",
"R;	c #A47A4F",
"S;	c #A9764D",
"T;	c #B18562",
"U;	c #C9A686",
"V;	c #906D4D",
"W;	c #79573D",
"X;	c #30302F",
"Y;	c #C0C0C0",
"Z;	c #A7A7A8",
"`;	c #2A2322",
" >	c #956C47",
".>	c #BD8C54",
"+>	c #B38052",
"@>	c #AB7954",
"#>	c #AD7D51",
"$>	c #A97851",
"%>	c #A97A4F",
"&>	c #A6794E",
"*>	c #B08867",
"=>	c #D0A37C",
"->	c #9F7B57",
";>	c #8C6746",
">>	c #7A593C",
",>	c #2F2E2E",
"'>	c #BEBCBD",
")>	c #A4A4A4",
"!>	c #28221F",
"~>	c #966E48",
"{>	c #B38053",
"]>	c #AB7649",
"^>	c #A97E52",
"/>	c #A67A51",
"(>	c #A97952",
"_>	c #AA7B4E",
":>	c #B58660",
"<>	c #C5A286",
"[>	c #B5885F",
"}>	c #98724D",
"|>	c #89633E",
"1>	c #7E5C3E",
"2>	c #312F2E",
"3>	c #BBB9BA",
"4>	c #A1A1A1",
"5>	c #2A221F",
"6>	c #986E48",
"7>	c #B18153",
"8>	c #A77C4E",
"9>	c #AC7851",
"0>	c #A67A4F",
"a>	c #B28764",
"b>	c #C5A080",
"c>	c #B28963",
"d>	c #A9794E",
"e>	c #987049",
"f>	c #7C593A",
"g>	c #2D2B2A",
"h>	c #B9B8B8",
"i>	c #9E9D9C",
"j>	c #2B221E",
"k>	c #986E47",
"l>	c #A87C53",
"m>	c #A7784E",
"n>	c #AC784E",
"o>	c #B58B63",
"p>	c #C0A080",
"q>	c #B28869",
"r>	c #A8784B",
"s>	c #AB794E",
"t>	c #9D734B",
"u>	c #8D653F",
"v>	c #7C5A3A",
"w>	c #2F2D2B",
"x>	c #B4B3B4",
"y>	c #9A9997",
"z>	c #2C231F",
"A>	c #9B6F48",
"B>	c #BE8C53",
"C>	c #AC794C",
"D>	c #A67A50",
"E>	c #B08A67",
"F>	c #C69E80",
"G>	c #B38963",
"H>	c #A97B4F",
"I>	c #AC7B50",
"J>	c #9D734D",
"K>	c #8C643E",
"L>	c #7E5B3B",
"M>	c #2C2A28",
"N>	c #B3B2B1",
"O>	c #989496",
"P>	c #32241D",
"Q>	c #96714A",
"R>	c #BD8A57",
"S>	c #B47E48",
"T>	c #A27952",
"U>	c #B08761",
"V>	c #C9A27E",
"W>	c #B38863",
"X>	c #A87A4E",
"Y>	c #AB7B4F",
"Z>	c #9D7249",
"`>	c #896540",
" ,	c #7D5C3D",
".,	c #2D2925",
"+,	c #AEAEAD",
"@,	c #919093",
"#,	c #34241D",
"$,	c #9C764B",
"%,	c #BC8954",
"&,	c #B07E4D",
"*,	c #AE8763",
"=,	c #D1A984",
"-,	c #AF855E",
";,	c #A57951",
">,	c #9F7349",
",,	c #886541",
"',	c #2F2824",
"),	c #ACADAC",
"!,	c #FFFEFB",
"~,	c #FDFFFD",
"{,	c #8E9192",
"],	c #32211C",
"^,	c #9B7544",
"/,	c #BA8A52",
"(,	c #B48B66",
"_,	c #CBA17B",
":,	c #A7794F",
"<,	c #7D5C3E",
"[,	c #AAAAAB",
"},	c #FAFDFB",
"|,	c #8C8E8E",
"1,	c #392722",
"2,	c #9A7449",
"3,	c #C49767",
"4,	c #CCA883",
"5,	c #B48861",
"6,	c #A47750",
"7,	c #A0744A",
"8,	c #805D3D",
"9,	c #2D2622",
"0,	c #A8A6A8",
"a,	c #FCFFFF",
"b,	c #FCFBFB",
"c,	c #8A8685",
"d,	c #36281D",
"e,	c #A58561",
"f,	c #D7AB84",
"g,	c #B88D64",
"h,	c #A5784F",
"i,	c #A67950",
"j,	c #AB7D54",
"k,	c #A1754B",
"l,	c #815D3D",
"m,	c #2E2520",
"n,	c #A5A3A5",
"o,	c #F9F8F9",
"p,	c #888384",
"q,	c #4B3D34",
"r,	c #BD9E7B",
"s,	c #C4956B",
"t,	c #A87B4D",
"u,	c #AA7C53",
"v,	c #AB7D53",
"w,	c #A3764C",
"x,	c #825E3E",
"y,	c #2C241F",
"z,	c #A2A1A2",
"A,	c #F5F6F7",
"B,	c #949598",
"C,	c #72635D",
"D,	c #AD885B",
"E,	c #BE8C56",
"F,	c #AF7E51",
"G,	c #A3774D",
"H,	c #825D3E",
"I,	c #2B231D",
"J,	c #A09EA0",
"K,	c #FEFDFC",
"L,	c #F7F9FA",
"M,	c #9A9FA2",
"N,	c #5A4A42",
"O,	c #A1774A",
"P,	c #BF8C51",
"Q,	c #AD7B50",
"R,	c #A5774C",
"S,	c #88623D",
"T,	c #815E40",
"U,	c #2D221C",
"V,	c #9C9B9D",
"W,	c #F7F7F9",
"X,	c #818587",
"Y,	c #433226",
"Z,	c #A4784F",
"`,	c #BE8D53",
" '	c #A87A4F",
".'	c #A7784C",
"+'	c #88633D",
"@'	c #805F41",
"#'	c #30231B",
"$'	c #98989B",
"%'	c #F3F3F5",
"&'	c #727678",
"*'	c #413123",
"='	c #A87C52",
"-'	c #BC8A50",
";'	c #AD7C50",
">'	c #A7794D",
",'	c #89633D",
"''	c #805F3F",
")'	c #31241B",
"!'	c #959596",
"~'	c #F1F2F3",
"{'	c #717474",
"]'	c #463527",
"^'	c #AB7E52",
"/'	c #BB8A50",
"('	c #806040",
"_'	c #34261E",
":'	c #909092",
"<'	c #EFEFF1",
"['	c #6C6F6F",
"}'	c #473427",
"|'	c #AA7C51",
"1'	c #BD8C52",
"2'	c #89633C",
"3'	c #836040",
"4'	c #39291F",
"5'	c #8D8D8E",
"6'	c #EDECED",
"7'	c #6A6C6C",
"8'	c #4A3728",
"9'	c #AB7D51",
"0'	c #BF8E53",
"a'	c #A97A4E",
"b'	c #A97A52",
"c'	c #846140",
"d'	c #89888A",
"e'	c #FBFCFC",
"f'	c #696969",
"g'	c #4F3A2B",
"h'	c #AD7E52",
"i'	c #BE8C52",
"j'	c #A77B52",
"k'	c #89633A",
"l'	c #846040",
"m'	c #3D2D23",
"n'	c #858486",
"o'	c #F9FBFA",
"p'	c #EBEAEC",
"q'	c #626265",
"r'	c #4F392A",
"s'	c #AE7F51",
"t'	c #84603F",
"u'	c #3D2E22",
"v'	c #828183",
"w'	c #F8F9F8",
"x'	c #606064",
"y'	c #543C2B",
"z'	c #AE7E4D",
"A'	c #BF8C54",
"B'	c #A87C4F",
"C'	c #A87951",
"D'	c #82613E",
"E'	c #3F3124",
"F'	c #7E7C81",
"G'	c #F6F7F5",
"H'	c #E8E8E7",
"I'	c #553E2C",
"J'	c #B08050",
"K'	c #A97B4E",
"L'	c #A87850",
"M'	c #8B6441",
"N'	c #84613E",
"O'	c #413226",
"P'	c #7B797D",
"Q'	c #F4F4F3",
"R'	c #59595D",
"S'	c #573F2E",
"T'	c #B28250",
"U'	c #BF8B53",
"V'	c #A77850",
"W'	c #85613D",
"X'	c #443426",
"Y'	c #777478",
"Z'	c #F2F2F1",
"`'	c #E4E5E3",
" )	c #555657",
".)	c #59422E",
"+)	c #B28350",
"@)	c #BD8951",
"#)	c #8D6540",
"$)	c #85613B",
"%)	c #473628",
"&)	c #727073",
"*)	c #F1F1F2",
"=)	c #E3E3E1",
"-)	c #515153",
";)	c #5B4430",
">)	c #B38451",
",)	c #BB8850",
"')	c #8D6641",
"))	c #86623C",
"!)	c #48382A",
"~)	c #6D6A6E",
"{)	c #EEEFEF",
"])	c #4E4E50",
"^)	c #5C4531",
"/)	c #B68753",
"()	c #BC8850",
"_)	c #8F6843",
":)	c #4A392A",
"<)	c #69666A",
"[)	c #EBECED",
"})	c #DFDFDE",
"|)	c #4A4A4C",
"1)	c #5E4733",
"2)	c #B78854",
"3)	c #BD8A51",
"4)	c #A77C52",
"5)	c #8F6743",
"6)	c #4B3B2B",
"7)	c #666367",
"8)	c #DDDFDE",
"9)	c #4B4B49",
"0)	c #5E4736",
"a)	c #B68555",
"b)	c #BF8A4F",
"c)	c #A57D52",
"d)	c #A67A4D",
"e)	c #8F6441",
"f)	c #86623F",
"g)	c #4C3C2A",
"h)	c #646468",
"i)	c #EBEAE9",
"j)	c #E8EAE7",
"k)	c #64635F",
"l)	c #483627",
"m)	c #C08750",
"n)	c #B47F4F",
"o)	c #A87B50",
"p)	c #A87B4F",
"q)	c #B07D4E",
"r)	c #9F7146",
"s)	c #8E6435",
"t)	c #896746",
"u)	c #372722",
"v)	c #7F7E81",
"w)	c #9A989D",
"x)	c #291D1C",
"y)	c #806147",
"z)	c #B68856",
"A)	c #BE8D54",
"B)	c #B18056",
"C)	c #B07F54",
"D)	c #AE7E53",
"E)	c #AE7D52",
"F)	c #AD7D52",
"G)	c #AC7C51",
"H)	c #A3744E",
"I)	c #936A42",
"J)	c #927146",
"K)	c #6B523D",
"L)	c #312527",
"M)	c #B4B3B3",
"N)	c #FEFFFA",
"O)	c #FFFFFC",
"P)	c #EAEBEC",
"Q)	c #636368",
"R)	c #2A1F18",
"S)	c #604732",
"T)	c #7A5C3F",
"U)	c #775B3F",
"V)	c #76593E",
"W)	c #765A3E",
"X)	c #75593C",
"Y)	c #735645",
"Z)	c #6D553A",
"`)	c #554330",
" !	c #261B17",
".!	c #75726F",
"+!	c #F7F7F4",
"@!	c #FEF9F9",
"#!	c #E8EFEB",
"$!	c #717472",
"%!	c #211A1B",
"&!	c #201819",
"*!	c #1F1918",
"=!	c #1E1817",
"-!	c #201A19",
";!	c #1D1514",
">!	c #22190D",
",!	c #808086",
"'!	c #F0F1EB",
")!	c #FEFEFB",
"!!	c #FEFCFE",
"~!	c #FAFEF8",
"{!	c #E6E6E8",
"]!	c #CCD0D1",
"^!	c #CFCFCD",
"/!	c #CECECC",
"(!	c #CDCDCB",
"_!	c #D3D3D5",
":!	c #CFCECC",
"<!	c #EBECEC",
"[!	c #F8FCFE",
"}!	c #FAFCFC",
"|!	c #FBFEFC",
"1!	c #FAFFF7",
"2!	c #FFFCFF",
"3!	c #FBFFFE",
"4!	c #FAFEFD",
"5!	c #FFFFFA",
"6!	c #FCFFFB",
"7!	c #FFFCFD",
"8!	c #FCFEFE",
". . . . . . . . . . . . . . . . . . . . . . . . . . . . . . . . . . . . . . . . . . . . . . . . . . . . . . . . . . . . . . . . . . . . . . . . . . . . . . . . ",
". . . . . . . . . . . . . . . . . . . . . . . . . . . . . . . . . . . . . . . . . . . . . . . . . . . . . . . . . . . . . . . . . . . . . . . . . . . . . . . . ",
". . . . . . . . . . . . . . . . . . . . . . . . . . . . . . . . . . . . . . . . . . . . . . . . . . . . . . . . . . . . . . . . . . . . . . . . . . . . . . . . ",
". . . . . . . . . . . . . . . . . . . . . . . . . . . . . . . . . . . . . . . . . . . . . . . . . . . . . . . . . . . . . . . . . . . . . . . . . . . . . . . . ",
". . . . . . . . . . . . . . . . . . . . . . . . . . . . . . . . . . . . . . . . . . . . . . . . . . . . . . . . . . . . . . . . . . . . . . . . . . . . . . . . ",
". . . . . . . . . . . . . . . . . . . . . . . . . . . . . . . . . . . . . . . . . . . . . . . . . . . . . . . . . . . . . . . . . . . . . . . . . . . . . . . . ",
". . . . . . . . . . . . . . . . . + @ # . . . . . . . . . . . . . . . . # $ . . . . . . $ . . # . % . . + + & $ & + . % . * . . . # . . # . . . . . . . . . . . ",
". . . . . . . . . . . . . . . . . . + . = - ; > , ' ) ) ) ) ) ) ! ~ { ] . . . . . . . . . . . . . . . . . $ ^ / ( @ _ $ : & < # . . # [ . . . . . . . . . . . . ",
". . . . . . . . . . . . . . . . . . . . } | 1 2 1 3 4 5 5 6 4 7 4 8 9 0 a b c d e e e f g e e h i h e j k l m n n [ # o / * . . p p . . # . . . . . . . . . . . ",
". . . . . . . . . . . . . . . . . . # . q r s t u v w x y y z A B C D E F G H I J K L M N O P Q R S T U V W X Y Z ` + # n # . [ # # [ . # . . . . . . . . . . . ",
". . . . . . . . . . . . . . . . . # . .  ...+.@.#.$.%.&.*.=.-.;.>.,.'.).!.~.{.].^.=./.(.(.(._.:.<.[.}.|.1.2.3.4.5.6.7.8.9.. . # 0.# # # . # . . . . . . . . . . ",
". . . . . . . . . . . . . . . . . $ . . a.b.c.d.d.e.f.f.g.g.h.=.=.i.j.k.l.m.n.o.p.q.r.s.h.t.u.v.w.x.y.z.A.B.C.D.E.F.G.H.I.J.[ . # # [ [ # . . . . . . . . . . . ",
". . . . . . . . . . . . . . . . . & . . K.L.M.N.O.P.f.Q.R.g.h.h.=.S.T.U.V.W.X.Y.Z.`. +.+++++@+#+$+%+&+*+=+-+;+>+,+'+)+!+~+{+]+^+. . [ # # . . . . . . . . . . . ",
". . . . . . . . . . . . . . . . . . $ . /+(+_+:+<+[+}+|+f.1+=.^.=.2+3+4+5+6+7+8+9+0+a+g.s.b+b+c+d+e+f+g+h+i+j+k+l+m+n+o+p+q+r+s+t+8.. n # . . % . $ . @ + . . . ",
". . . . . . . . . . . . . . . . . . . . u+v+w+x+y+z+A+B+q.R.Q.C+D+E+F+G+H+I+J+K+L+M+z+N+O+P+Q+R+S+T+U+V+W+X+Y+Z+X+X+X+`+ @.@+@@@#@$@%@. . # $ $ m % &@+ & . . . ",
". . . . . . . . . . . . . . . . . @ . . *@=@H+x+-@M+;@>@,@'@t.)@g.!@~@{@_+]@^@W./@7+(@_@0+`.g.)@=.$.q.:@<@[@l+}@|@1@2@3@4@5@6@7@8@9@0@a@b@. p # # # % o . . . . ",
". . . . . . . . . . . . . . . . . . . . c@=@H+x+d@7+e@f@z+g@,@g.h.h@i@j@k@l@/@m@d@/@/@7+M+n@o@a+p@q@r@s@t@u@v@w@x@y@z@A@B@C@D@E@F@G@H@I@J@K@L@M@N@[ [ . % . . . ",
". . . . . . . . . . . . . . . . . . . . c@=@H+x+y+/@:+Y.(@n@O@P@B+Q@R@S@T@U@V@W@7+/@W.X@(@7+V@Y@Y@Z@`@ #.#+#@###$#%#&###*#=#-#;#>#,#'#)#!#~#{#]#^#n $ # . . . . ",
". . . . . . . . . . . . . . . . . . . . *@=@H+x+/#/@J+7+/@M+(#_#:#<#[#}#|#1#2#3#4#7+(@(@(#/@5#6#V@7#8#9#0#a#b#c#d#e#f#g#h#i#j#k#l#m#n#o#p#q#r#s#t## @ n . . . . ",
". . . . . . . . . . . . . . . . . # . . u#v#w#x#/#/@y#/@/@7+z#(@(#A#B#C#D#E#H+F#G#H#I#J#K#L#M#N#O#P#Q#R#S#T#U#. . V#. . . W#X#Y#Z#`# $6@.$+$@$#$$$. : @ + . . . ",
". . . . . . . . . . . . . . . . . . . . u+%$&$*$=$-$;$;$;$>$>$>$,$'$)$!$~${$]$^$/$($_$:$p#<$[$}$|$1$2$3$4$5$. * 0.$ n 0.6$+ . 7$8$9$0$a$b$c$d$e$f$g$. # . . . . ",
". . . . . . . . . . . . . . . . . . . . h$i$j$k$l$m$n$o$o$o$o$n$p$q$r$s$t$u$v$w$x$i.y$z$A$B$C$D$E$F$G$H$I$J$. + o . # # + # # K$. L$M$G.N$O$P$Q$R$S$T$. . [ # [ ",
". . . . . . . . . . . . . . . . . . # . U$V$W$X$Y$Z$N N N N N N N `$ %.%+%@%#%$%%%&%y$z$*%=%C$-%;%>%,%'%. + # @ . # . . . # . # 0.. )%!%~%{%]%^%/%(%_%t#. # . [ ",
". . . . . . . . . . . . . . . . . . . :%<%[%}%|%}%1%[%[%[%[%[%[%[%[%}%2%3%@%4%5%%%&%y$z$*%=%C$-%6%q$7%8%. 9%# . . . . . # . 0.. # [ . # 0%a%b%c%d%e%f%g%. . # # ",
". . . . . . . . . . . . . . . . . . # # . [ [ . # . . . . . . . . # # . h%i%j%k%%%&%y$z$*%=%l%m%n%e$o%p%. + # . . . . . # . . [ # . . [ . q%r%s%t%u%v%w%x%. # . ",
". . . . . . . . . . . . . . . . . . . [ [ . [ 0.. . . . . . . . # # # . y%9$z%$%%%&%y$z$*%=%C$A%B%C%D%E%. o + . . . . . . # 0.# [ # [ . F%N@G%H%I%J%K%i$L%. . # ",
". . . . . . . . . . . . . . . . . . # # [ [ . # [ . # . . . . . . # [ . M%N%O%P%%%&%y$z$*%=%Q%R%S%T%U%. # &@% . . . . . . # # # # 0.. # % L@. V%W%X%Y%3.Z%`%# . ",
". . . . . . . . . . . . . . . . . . # # . [ # # 0.# . . . . . . # # # * .  &.&+&%%&%y$z$*%=%C$@&#&$&%&. . # + & . . . . . [ # # # # # # o * &&. *&=&-&;&>&,&. # ",
". . . . . . . . . . . . . . . . . . # # # . # . . [ . . . . . . # 2%'&M@. )&!&~&U.{&]&^&/&(&_&:&<&[&}&. |&6$+ & . . . . # . . # . . # # + 1&2&# 3&4&5&6&~%7&. # ",
". . . . . . . . . . . . . . . . . # . . . # . . . . # . . . . . * 8&: 9&. 0&a&b&c&d&e&f&g&h&i&j&k&l&m&. n&9&% $ . . . . . . # . # # . . # # 0.# 6$o&p&q&r&s&. . ",
". . . . . . . . . . . . . . . . . . . . . . . . . . . . . . . . # t&u&# . v&w&x&y&z&A&B&C&D&E&F&G&H&I&. J&K&# . . . . . . . . . . . . . # # # . 0.L&M&N&O&x%# 0.",
". . . . . . . . . . . . . . . . . . . . . . . . . . . . . . . . @ P&m o . Q&R&S&T&d&_$U&V&W&X&Y&Z&`& *. .** # . . . . . . . . . . . . # . [ [ # # # +*[%@*# p # ",
". . . . . . . . . . . . . . . . . . . . . . . . . . . . . . . . # #*. o . $*%*&***=*-*;*>*,*'*)*!*~*{*. ]*^*@ + . . . . . . . . . . . . [ # . # # # . . . # # # ",
". . . . . . . . . . . . . . . . . . . . . . . . . . . . . . . . + ^ /*. (*_*:*<*[*}*|*1*1*2*3*4*5*6*7*8*. 9*# . . . . . . . . . . . . . # # # # # # # . # [ # 0.",
". . . . . . . . . . . . . . . . . . . . . . . . . . . . . . . . # 0*a*. b*c*d*e*f*g*h*i*j*k*l*m*n*o*p*q*. n $ % . . . . . . . . . . . # . . . p [ . . . [ # . 0.",
". . . . . . . . . . . . . . . . . . . . . . . . . . . . . . . . % :%r*. s*t*u*v*w*x*y*z*A*B*C*D*E*F*G*H*. I*@ . . . . . . . . . . . . . . . # . . # . # # # # . ",
". . . . . . . . . . . . . . . . . . . . . . . . . . . . . . . . . @ J*# K*L*M*N*O*P*Q*Q*R*R*Q*S*T*U*V*W*. M@& $ . . . . . . . . . . . . . . . . . . # . . . . # ",
". . . . . . . . . . . . . . . . . . . . . . . . . . . . . . . . + # X*Y*Z*`* =.=+=Q*@=Q*Q*Q*Q*S*#=$=%=&=. V#& . . . . . . . . . . . . . . . . . . . . . . . . . ",
". . . . . . . . . . . . . . . . . . . . . . . . . . . . . . . . + # L@*===-=;=>=+=Q*@=Q*Q*Q*Q*S*#=,='=)=. V#& + . . . . . . . . . . . . . . . . . . . . . . . . ",
". . . . . . . . . . . . . . . . . . . . . . . . . . . . . . . . + # L@!=~={=]=.=P*@=Q*Q*Q*Q*Q*^=#=/=(=_=. + % . . . . . . . . . . . . . . . . . . . . . . . . . ",
". . . . . . . . . . . . . . . . . . . . . . . . . . . . . . . . + # L@:=<=[=}=|=Q*@=Q*Q*Q*Q*1=2=#=/=3=4=$ . + & . . . . . . . . . . . . . . . . . . . . . . . . ",
". . . . . . . . . . . . . . . . . . . . . . . . . . . . . . . . + # L@5=6=7=8=|=Q*@=@=Q*Q*Q*R*9=#=0=a=b=Y*+ % . . . . . . . . . . . . . . . . . . . . . . . . . ",
". . . . . . . . . . . . . . . . . . . . . . . . . . . . . . . . # # & c=d=e=f=g=Q*@=@=Q*Q*Q*h=9=#=i=j=k=l=$ # . . . . . . . . . . . . . . . . . . . . . . . . . ",
". . . . . . . . . . . . . . . . . . . . . . . . . . . . . . . . # N@. m=n=o=p=q=@=Q*Q*@=Q*Q*r=A*s=t=u=v=L&& @ + . . . . . . . . . . . . . . . . . . . . . . . . ",
". . . . . . . . . . . . . . . . . . . . . . . . . . . . . . . . . & . w=x=y=z=q=@=Q*Q*Q*Q*Q*Q*A*s=A=B=C=D=& @ + . . . . . . . . . . . . . . . . . . . . . . . . ",
". . . . . . . . . . . . . . . . . . . . . . . . . . . . . . . . . & . E=F=G=H=q=@=Q*Q*Q*Q*Q*Q*z*I=J=K=L=:=& # . . . . . . . . . . . . . . . . . . . . . . . . . ",
". . . . . . . . . . . . . . . . . . . . . . . . . . . . . . . . # # . M=N=O=P=Q=R=@=Q*Q*Q*Q*Q*A*I=A=S=T=U=& # . . . . . . . . . . . . . . . . . . . . . . . . . ",
". . . . . . . . . . . . . . . . . . . . . . . . . . . . . . . . # :%. V=W=X=Y=Z=`=Q*@=Q*Q*Q*R*A* -.-+-@-#-. # . . . . . . . . . . . . . . . . . . . . . . . . . ",
". . . . . . . . . . . . . . . . . . . . . . . . . . . . . . . . * # . $-%-&-*-Z=S*@=Q*Q*Q*Q*Q*=---$=;->-|%& & * . . . . . . . . . . . . . . . . . . . . . . . . ",
". . . . . . . . . . . . . . . . . . . . . . . . . . . . . . . . . & . ,-'-)-!-Z=`=@=Q*Q*Q*Q*Q*=-~-{-]-^-/-& & . . . . . . . . . . . . . . . . . . . . . . . . . ",
". . . . . . . . . . . . . . . . . . . . . . . . . . . . . . . . . @ . (-_-:-<-[-}-Q*@=Q*Q*Q*h=A*|-i=1-2-3-. . & . . . . . . . . . . . . . . . . . . . . . . . . ",
". . . . . . . . . . . . . . . . . . . . . . . . . . . . . . . . . @ . 4-5-6-<-[-z*Q*Q*Q*Q*Q*Q*A*7-i=8-9-0-. + $ . . . . . . . . . . . . . . . . . . . . . . . . ",
". . . . . . . . . . . . . . . . . . . . . . . . . . . . . . . . . @ . a-b-c-d-[-z*Q*Q*Q*Q*Q*Q*A*e-0=f-g-h-. $ . . . . . . . . . . . . . . . . . . . . . . . . . ",
". . . . . . . . . . . . . . . . . . . . . . . . . . . . . . . . . @ . i-j-k-l-m-z*Q*Q*Q*Q*Q*Q*n-e-o-G=p-q-. $ . . . . . . . . . . . . . . . . . . . . . . . . . ",
". . . . . . . . . . . . . . . . . . . . . . . . . . . . . . . . & $ . r-s-t-<-u-z*Q*Q*Q*Q*Q*n-Q*v-w-x-y-z-. $ . . . . . . . . . . . . . . . . . . . . . . . . . ",
". . . . . . . . . . . . . . . . . . . . . . . . . . . . . . . . % * . A-B-C-D-E-z*Q*Q*Q*Q*Q*Q*Q*F-G-H-I-J-. $ . . . . . . . . . . . . . . . . . . . . . . . . . ",
". . . . . . . . . . . . . . . . . . . . . . . . . . . . . . . . + # . K-L-M-N-E-z*Q*Q*Q*Q*Q*n-Q*O-P-Q-R-S-. $ . . . . . . . . . . . . . . . . . . . . . . . . . ",
". . . . . . . . . . . . . . . . . . . . . . . . . . . . . . . . % o . T-U-V-W-X-@=Q*Q*Q*Q*Q*R*Y-Z-`- ;.;J.. * & . . . . . . . . . . . . . . . . . . . . . . . . ",
". . . . . . . . . . . . . . . . . . . . . . . . . . . . . . . . % o . +;@;#;W-$;@=Q*Q*Q*Q*Q*Q*%;Z-&;*;=;-;. @ . . . . . . . . . . . . . . . . . . . . . . . . . ",
". . . . . . . . . . . . . . . . . . . . . . . . . . . . . . . . # o . ;;>;,;q=';R=Q*Q*Q*Q*Q*@=);!;~;{;];^;. # . . . . . . . . . . . . . . . . . . . . . . . . . ",
". . . . . . . . . . . . . . . . . . . . . . . . . . . . . . . . # # . {#/;(;W-';@=Q*Q*Q*Q*Q*Q*@=!;_;:;<;[;. # . . . . . . . . . . . . . . . . . . . . . . . . . ",
". . . . . . . . . . . . . . . . . . . . . . . . . . . . . . . . . $ . };|;1;W-2;R=Q*Q*Q*Q*Q*@=);3;4;5;6;7;. . # . . . . . . . . . . . . . . . . . . . . . . . . ",
". . . . . . . . . . . . . . . . . . . . . . . . . . . . . . . . & $ . 8;9;0;.=a;@=Q*Q*Q*Q*Q*Q*b;c;d;e;f;g;. * . . . . . . . . . . . . . . . . . . . . . . . . . ",
". . . . . . . . . . . . . . . . . . . . . . . . . . . . . . . . . $ . h;i;j;q=k;@=h=1=r=r=n-R=l;m;n;o;p;q;. * & . . . . . . . . . . . . . . . . . . . . . . . . ",
". . . . . . . . . . . . . . . . . . . . . . . . . . . . . . . . & V#. r;s;t;u;v;w;x;y;z;1=A;B;C;D;E;F;G;H;. @ + . . . . . . . . . . . . . . . . . . . . . . . . ",
". . . . . . . . . . . . . . . . . . . . . . . . . . . . . . . . # & . I;J;K;L;M;N;O;P;h=Q;R;S;T;U;V;W;X;Y;. & * . . . . . . . . . . . . . . . . . . . . . . . . ",
". . . . . . . . . . . . . . . . . . . . . . . . . . . . . . . . . # . Z;`; >.>+>@>z;#>$>%>&>*>=>->;>>>,>'>. + & . . . . . . . . . . . . . . . . . . . . . . . . ",
". . . . . . . . . . . . . . . . . . . . . . . . . . . . . . . . . # . )>!>~>.>{>]>^>/>(>_>:><>[>}>|>1>2>3>. % . . . . . . . . . . . . . . . . . . . . . . . . . ",
". . . . . . . . . . . . . . . . . . . . . . . . . . . . . . . . . * . 4>5>6>L;7>8>9>Q*0>a>b>c>d>e>_;f>g>h>. % . . . . . . . . . . . . . . . . . . . . . . . . . ",
". . . . . . . . . . . . . . . . . . . . . . . . . . . . . . . . $ * . i>j>k>L;}=l>m>n>o>p>q>r>s>t>u>v>w>x>. & + . . . . . . . . . . . . . . . . . . . . . . . . ",
". . . . . . . . . . . . . . . . . . . . . . . . . . . . . . . . * $ . y>z>A>B>w*C>D>E>F>G>H>A*I>J>K>L>M>N>. & . . . . . . . . . . . . . . . . . . . . . . . . . ",
". . . . . . . . . . . . . . . . . . . . . . . . . . . . . . . . $ $ . O>P>Q>R>S>T>U>V>W>`=X>l;Y>Z>`> ,.,+,. & . . . . . . . . . . . . . . . . . . . . . . . . . ",
". . . . . . . . . . . . . . . . . . . . . . . . . . . . . . . . % ^#. @,#,$,%,&,*,=,-,;,O*+=Q*=->,,,1>',),. . & . . . . . . . . . . . . . . . . . . . . . . . . ",
". . . . . . . . . . . . . . . . . . . . . . . . . . . . . . . . % !,~,{,],^,/,(,_,G>;,}-:,+=Q*Q*>,&;<,p*[,. . . . . . . . . . . . . . . . . . . . . . . . . . . ",
". . . . . . . . . . . . . . . . . . . . . . . . . . . . . . . . & V#},|,1,2,3,4,5,6,}-O*+=S*@=Q*7,&;8,9,0,. . . . . . . . . . . . . . . . . . . . . . . . . . . ",
". . . . . . . . . . . . . . . . . . . . . . . . . . . . . . . . $ a,b,c,d,e,f,g,h,i,j,@=m>);@=Q*k,&;l,m,n,. . $ . . . . . . . . . . . . . . . . . . . . . . . . ",
". . . . . . . . . . . . . . . . . . . . . . . . . . . . . . . . # _ o,p,q,r,s,t,u,@=Q*@=Q*m>v,Q*w,&;x,y,z,. $ . . . . . . . . . . . . . . . . . . . . . . . . . ",
". . . . . . . . . . . . . . . . . . . . . . . . . . . . . . . . # ^#A,B,C,D,E,F,@=+=@=Q*@=+=i,r=G,w-H,I,J,. $ . . . . . . . . . . . . . . . . . . . . . . . . . ",
". . . . . . . . . . . . . . . . . . . . . . . . . . . . . . . . # K,L,M,N,O,P,Q,R=@=Q*Q*@=R*C*R=R,S,T,U,V,. . . . . . . . . . . . . . . . . . . . . . . . . . . ",
". . . . . . . . . . . . . . . . . . . . . . . . . . . . . . . . # + W,X,Y,Z,`,I>R=Q*@=@=Q*@=Q* '.'+'@'#'$'. . . . . . . . . . . . . . . . . . . . . . . . . . . ",
". . . . . . . . . . . . . . . . . . . . . . . . . . . . . . . . . . %'&'*'='-';'R=Q*Q*Q*Q*Q*h=R=>',''')'!'. . . . . . . . . . . . . . . . . . . . . . . . . . . ",
". . . . . . . . . . . . . . . . . . . . . . . . . . . . . . . . # o ~'{']'^'/';'@=Q*Q*Q*Q*Q*1=2=>','('_':'. . . . . . . . . . . . . . . . . . . . . . . . . . . ",
". . . . . . . . . . . . . . . . . . . . . . . . . . . . . . . . . . <'['}'|'1'k*n-Q*Q*Q*Q*Q*1=2=>'2'3'4'5'n . . . . . . . . . . . . . . . . . . . . . . . . . . ",
". . . . . . . . . . . . . . . . . . . . . . . . . . . . . . . . . . 6'7'8'9'0'a'Q*Q*Q*Q*Q*Q*h=b'X>2'c'V*d'e'. & . . . . . . . . . . . . . . . . . . . . . . . . ",
". . . . . . . . . . . . . . . . . . . . . . . . . . . . . . . . $ . 6'f'g'h'i'=-R=Q*Q*Q*Q*Q*R*j'X>k'l'm'n'o'. . . . . . . . . . . . . . . . . . . . . . . . . . ",
". . . . . . . . . . . . . . . . . . . . . . . . . . . . . . . . # . p'q'r's'i'n-h=Q*Q*Q*Q*Q*R*A*S*2't'u'v'w'. . . . . . . . . . . . . . . . . . . . . . . . . . ",
". . . . . . . . . . . . . . . . . . . . . . . . . . . . . . . . # . 1%x'y'z'A'9=R*Q*Q*Q*Q*Q*r=B'C'&;D'E'F'G'. + . . . . . . . . . . . . . . . . . . . . . . . . ",
". . . . . . . . . . . . . . . . . . . . . . . . . . . . . . . . . . H'q$I'J'A'C*h=Q*Q*Q*Q*Q*r=K'L'M'N'O'P'Q'. . . . . . . . . . . . . . . . . . . . . . . . . . ",
". . . . . . . . . . . . . . . . . . . . . . . . . . . . . . . . . . J$R'S'T'U'}-Q*Q*Q*Q*Q*Q*n-h=V'--W'X'Y'Z'. . . . . . . . . . . . . . . . . . . . . . . . . . ",
". . . . . . . . . . . . . . . . . . . . . . . . . . . . . . . . . . `' ).)+)@)z*Q*Q*Q*Q*Q*Q*1=Q*L'#)$)%)&)*). . . . . . . . . . . . . . . . . . . . . . . . . . ",
". . . . . . . . . . . . . . . . . . . . . . . . . . . . . . . . . . =)-);)>),)A*h=Q*Q*Q*Q*Q*Q*A*L'')))!)~){). % . . . . . . . . . . . . . . . . . . . . . . . . ",
". . . . . . . . . . . . . . . . . . . . . . . . . . . . . . . . . . 8%])^)/)()A*h=n-1=n-Q*Q*Q*A*L'_))):)<)[). . . . . . . . . . . . . . . . . . . . . . . . . . ",
". . . . . . . . . . . . . . . . . . . . . . . . . . . . . . . . + . })|)1)2)3)4)r=r=r=R*R*R*R*z*C'5)))6)7)|%. . . . . . . . . . . . . . . . . . . . . . . . . . ",
". . . . . . . . . . . . . . . . . . . . . . . . . . . . . . . . + . 8)9)0)a)b)c)@=@=@=@=%>%>@=d)u*e)f)g)h)i). $ . . . . . . . . . . . . . . . . . . . . . . . . ",
". . . . . . . . . . . . . . . . . . . . . . . . . . . . . . . . $ $ j)k)l)='m)n)o) ' ' 'p)1= 'q)r)s)t)u)v)L&. . . . . . . . . . . . . . . . . . . . . . . . . . ",
". . . . . . . . . . . . . . . . . . . . . . . . . . . . . . . . * J&. w)x)y)z)A)B)C)D)D)E)F)G)H)I)J)K)L)M). + @ . . . . . . . . . . . . . . . . . . . . . . . . ",
". . . . . . . . . . . . . . . . . . . . . . . . . . . . . . . . @ N)O)P)Q)R)S)T)U)V)V)V)W)V)X)Y)Z)`) !.!+!. * . . . . . . . . . . . . . . . . . . . . . . . . . ",
". . . . . . . . . . . . . . . . . . . . . . . . . . . . . . . . % :%@!O)#!$!%!&!*!*!=!*!-!-!-!;!>!%!,!'!)!6$$ & . . . . . . . . . . . . . . . . . . . . . . . . ",
". . . . . . . . . . . . . . . . . . . . . . . . . . . . . . . . * ^ !!2%~!u&{!]!^!^!^!^!^!/!(!_!:!<![!}!^#|!# . . . . . . . . . . . . . . . . . . . . . . . . . ",
". . . . . . . . . . . . . . . . . . . . . . . . . . . . . . . . @ 1!% + + 2!/ 3!. . . . . . . 4!. 5!6!^ 7!8!$ % . . . . . . . . . . . . . . . . . . . . . . . . ",
". . . . . . . . . . . . . . . . . . . . . . . . . . . . . . . . . + $ & . . @ . # . . . . . # . $ + + & $ . % $ . . . . . . . . . . . . . . . . . . . . . . . . ",
". . . . . . . . . . . . . . . . . . . . . . . . . . . . . . . . . . . . . . . . . . . . . . . . . . . . . . . . . . . . . . . . . . . . . . . . . . . . . . . . ",
". . . . . . . . . . . . . . . . . . . . . . . . . . . . . . . . . . . . . . . . . . . . . . . . . . . . . . . . . . . . . . . . . . . . . . . . . . . . . . . . ",
". . . . . . . . . . . . . . . . . . . . . . . . . . . . . . . . . . . . . . . . . . . . . . . . . . . . . . . . . . . . . . . . . . . . . . . . . . . . . . . . ",
". . . . . . . . . . . . . . . . . . . . . . . . . . . . . . . . . . . . . . . . . . . . . . . . . . . . . . . . . . . . . . . . . . . . . . . . . . . . . . . . ",
". . . . . . . . . . . . . . . . . . . . . . . . . . . . . . . . . . . . . . . . . . . . . . . . . . . . . . . . . . . . . . . . . . . . . . . . . . . . . . . . ",
". . . . . . . . . . . . . . . . . . . . . . . . . . . . . . . . . . . . . . . . . . . . . . . . . . . . . . . . . . . . . . . . . . . . . . . . . . . . . . . . "};
