digraph gui {
 rankdir=TB;
 "Main panel" -> "Menus";
 "Main panel" -> "Tree viewer";
 "Main panel" -> "Viewer(s)";
 "Main panel" -> "Dump area";
 "Main panel" -> "Command typing";
 "Menus" -> "Dialogs";
}
